2022-05-13 17:13:27,025 INFO  - navigating to FptShop XiaomiPage...
2022-05-13 17:13:30,009 INFO  - > waiting for page to be ready... complete
2022-05-13 17:13:35,050 INFO  - checking PageAlive...
2022-05-13 17:13:35,061 INFO  - > waiting for page to be ready... complete
2022-05-13 17:13:40,120 INFO  - > waiting for element: By.xpath: //div[@class='chapter-list js--chapter-list']/div
2022-05-13 17:13:40,130 INFO  - > waiting for page to be ready... complete
2022-05-13 17:13:40,159 INFO  - > click: By.xpath: //a[@class='btn-vm js--chapter-viewmore']
2022-05-13 17:13:40,167 INFO  - > waiting for page to be ready... complete
2022-05-13 17:13:40,171 INFO  - > waiting until presenceOfElementLocated: By.xpath: //a[@class='btn-vm js--chapter-viewmore']
2022-05-13 17:13:40,187 INFO  - > waiting for page to be ready... complete
2022-05-13 17:13:41,250 INFO  - > click: By.xpath: //div[@class='chapter-list js--chapter-list']/div[1]/a
2022-05-13 17:13:41,259 INFO  - > waiting for page to be ready... complete
2022-05-13 17:13:41,263 INFO  - > waiting until presenceOfElementLocated: By.xpath: //div[@class='chapter-list js--chapter-list']/div[1]/a
2022-05-13 17:13:41,281 INFO  - > waiting for page to be ready... complete
2022-05-13 17:13:43,407 INFO  - > waiting for element: By.xpath: //div[@id='product-grid']/div
2022-05-13 17:13:43,415 INFO  - > waiting for page to be ready... complete
2022-05-13 17:13:43,437 INFO  - checking cateElement: By.xpath: //div[@class='chapter-list js--chapter-list']/div[1]/a: PASS!!!
2022-05-13 17:13:43,437 INFO  - > click: By.xpath: //a[@class='btn-vm js--chapter-viewmore']
2022-05-13 17:13:43,444 INFO  - > waiting for page to be ready... complete
2022-05-13 17:13:43,448 INFO  - > waiting until presenceOfElementLocated: By.xpath: //a[@class='btn-vm js--chapter-viewmore']
2022-05-13 17:13:43,460 INFO  - > waiting for page to be ready... complete
2022-05-13 17:13:44,513 INFO  - > click: By.xpath: //div[@class='chapter-list js--chapter-list']/div[2]/a
2022-05-13 17:13:44,521 INFO  - > waiting for page to be ready... complete
2022-05-13 17:13:44,524 INFO  - > waiting until presenceOfElementLocated: By.xpath: //div[@class='chapter-list js--chapter-list']/div[2]/a
2022-05-13 17:13:44,538 INFO  - > waiting for page to be ready... complete
2022-05-13 17:13:46,386 INFO  - > waiting for element: By.xpath: //div[@id='product-grid']/div
2022-05-13 17:13:46,392 INFO  - > waiting for page to be ready... complete
2022-05-13 17:13:46,408 INFO  - checking cateElement: By.xpath: //div[@class='chapter-list js--chapter-list']/div[2]/a: PASS!!!
2022-05-13 17:13:46,408 INFO  - > click: By.xpath: //a[@class='btn-vm js--chapter-viewmore']
2022-05-13 17:13:46,416 INFO  - > waiting for page to be ready... complete
2022-05-13 17:13:46,419 INFO  - > waiting until presenceOfElementLocated: By.xpath: //a[@class='btn-vm js--chapter-viewmore']
2022-05-13 17:13:46,430 INFO  - > waiting for page to be ready... complete
2022-05-13 17:13:47,475 INFO  - > click: By.xpath: //div[@class='chapter-list js--chapter-list']/div[3]/a
2022-05-13 17:13:47,490 INFO  - > waiting for page to be ready... complete
2022-05-13 17:13:47,493 INFO  - > waiting until presenceOfElementLocated: By.xpath: //div[@class='chapter-list js--chapter-list']/div[3]/a
2022-05-13 17:13:47,508 INFO  - > waiting for page to be ready... complete
2022-05-13 17:13:49,304 INFO  - > waiting for element: By.xpath: //div[@id='product-grid']/div
2022-05-13 17:13:49,311 INFO  - > waiting for page to be ready... complete
2022-05-13 17:13:49,326 INFO  - checking cateElement: By.xpath: //div[@class='chapter-list js--chapter-list']/div[3]/a: PASS!!!
2022-05-13 17:13:49,326 INFO  - > click: By.xpath: //a[@class='btn-vm js--chapter-viewmore']
2022-05-13 17:13:49,333 INFO  - > waiting for page to be ready... complete
2022-05-13 17:13:49,336 INFO  - > waiting until presenceOfElementLocated: By.xpath: //a[@class='btn-vm js--chapter-viewmore']
2022-05-13 17:13:49,348 INFO  - > waiting for page to be ready... complete
2022-05-13 17:13:50,409 INFO  - > click: By.xpath: //div[@class='chapter-list js--chapter-list']/div[4]/a
2022-05-13 17:13:50,424 INFO  - > waiting for page to be ready... complete
2022-05-13 17:13:50,427 INFO  - > waiting until presenceOfElementLocated: By.xpath: //div[@class='chapter-list js--chapter-list']/div[4]/a
2022-05-13 17:13:50,441 INFO  - > waiting for page to be ready... complete
2022-05-13 17:13:52,281 INFO  - > waiting for element: By.xpath: //div[@id='product-grid']/div
2022-05-13 17:13:52,291 INFO  - > waiting for page to be ready... complete
2022-05-13 17:13:52,306 INFO  - checking cateElement: By.xpath: //div[@class='chapter-list js--chapter-list']/div[4]/a: PASS!!!
2022-05-13 17:13:52,306 INFO  - > click: By.xpath: //a[@class='btn-vm js--chapter-viewmore']
2022-05-13 17:13:52,312 INFO  - > waiting for page to be ready... complete
2022-05-13 17:13:52,315 INFO  - > waiting until presenceOfElementLocated: By.xpath: //a[@class='btn-vm js--chapter-viewmore']
2022-05-13 17:13:52,326 INFO  - > waiting for page to be ready... complete
2022-05-13 17:13:53,369 INFO  - > click: By.xpath: //div[@class='chapter-list js--chapter-list']/div[5]/a
2022-05-13 17:13:53,387 INFO  - > waiting for page to be ready... complete
2022-05-13 17:13:53,391 INFO  - > waiting until presenceOfElementLocated: By.xpath: //div[@class='chapter-list js--chapter-list']/div[5]/a
2022-05-13 17:13:53,405 INFO  - > waiting for page to be ready... complete
2022-05-13 17:13:55,216 INFO  - > waiting for element: By.xpath: //div[@id='product-grid']/div
2022-05-13 17:13:55,226 INFO  - > waiting for page to be ready... complete
2022-05-13 17:13:55,240 INFO  - checking cateElement: By.xpath: //div[@class='chapter-list js--chapter-list']/div[5]/a: PASS!!!
2022-05-13 17:13:55,240 INFO  - > click: By.xpath: //a[@class='btn-vm js--chapter-viewmore']
2022-05-13 17:13:55,247 INFO  - > waiting for page to be ready... complete
2022-05-13 17:13:55,250 INFO  - > waiting until presenceOfElementLocated: By.xpath: //a[@class='btn-vm js--chapter-viewmore']
2022-05-13 17:13:55,261 INFO  - > waiting for page to be ready... complete
2022-05-13 17:13:56,334 INFO  - > click: By.xpath: //div[@class='chapter-list js--chapter-list']/div[6]/a
2022-05-13 17:13:56,351 INFO  - > waiting for page to be ready... complete
2022-05-13 17:13:56,355 INFO  - > waiting until presenceOfElementLocated: By.xpath: //div[@class='chapter-list js--chapter-list']/div[6]/a
2022-05-13 17:13:56,372 INFO  - > waiting for page to be ready... complete
2022-05-13 17:13:58,203 INFO  - > waiting for element: By.xpath: //div[@id='product-grid']/div
2022-05-13 17:13:58,212 INFO  - > waiting for page to be ready... complete
2022-05-13 17:13:58,226 INFO  - checking cateElement: By.xpath: //div[@class='chapter-list js--chapter-list']/div[6]/a: PASS!!!
2022-05-13 17:13:58,226 INFO  - > click: By.xpath: //a[@class='btn-vm js--chapter-viewmore']
2022-05-13 17:13:58,232 INFO  - > waiting for page to be ready... complete
2022-05-13 17:13:58,235 INFO  - > waiting until presenceOfElementLocated: By.xpath: //a[@class='btn-vm js--chapter-viewmore']
2022-05-13 17:13:58,246 INFO  - > waiting for page to be ready... complete
2022-05-13 17:13:59,300 INFO  - > click: By.xpath: //div[@class='chapter-list js--chapter-list']/div[7]/a
2022-05-13 17:13:59,316 INFO  - > waiting for page to be ready... complete
2022-05-13 17:13:59,319 INFO  - > waiting until presenceOfElementLocated: By.xpath: //div[@class='chapter-list js--chapter-list']/div[7]/a
2022-05-13 17:13:59,335 INFO  - > waiting for page to be ready... complete
2022-05-13 17:14:01,130 INFO  - > waiting for element: By.xpath: //div[@id='product-grid']/div
2022-05-13 17:14:01,136 INFO  - > waiting for page to be ready... complete
2022-05-13 17:14:01,150 INFO  - checking cateElement: By.xpath: //div[@class='chapter-list js--chapter-list']/div[7]/a: PASS!!!
2022-05-13 17:14:01,150 INFO  - > click: By.xpath: //a[@class='btn-vm js--chapter-viewmore']
2022-05-13 17:14:01,156 INFO  - > waiting for page to be ready... complete
2022-05-13 17:14:01,159 INFO  - > waiting until presenceOfElementLocated: By.xpath: //a[@class='btn-vm js--chapter-viewmore']
2022-05-13 17:14:01,170 INFO  - > waiting for page to be ready... complete
2022-05-13 17:14:02,210 INFO  - > click: By.xpath: //div[@class='chapter-list js--chapter-list']/div[8]/a
2022-05-13 17:14:02,223 INFO  - > waiting for page to be ready... complete
2022-05-13 17:14:02,230 INFO  - > waiting until presenceOfElementLocated: By.xpath: //div[@class='chapter-list js--chapter-list']/div[8]/a
2022-05-13 17:14:02,246 INFO  - > waiting for page to be ready... complete
2022-05-13 17:14:04,069 INFO  - > waiting for element: By.xpath: //div[@id='product-grid']/div
2022-05-13 17:14:04,075 INFO  - > waiting for page to be ready... complete
2022-05-13 17:14:04,091 INFO  - checking cateElement: By.xpath: //div[@class='chapter-list js--chapter-list']/div[8]/a: PASS!!!
2022-05-13 17:14:04,091 INFO  - > click: By.xpath: //a[@class='btn-vm js--chapter-viewmore']
2022-05-13 17:14:04,099 INFO  - > waiting for page to be ready... complete
2022-05-13 17:14:04,101 INFO  - > waiting until presenceOfElementLocated: By.xpath: //a[@class='btn-vm js--chapter-viewmore']
2022-05-13 17:14:04,112 INFO  - > waiting for page to be ready... complete
2022-05-13 17:14:05,172 INFO  - > click: By.xpath: //div[@class='chapter-list js--chapter-list']/div[9]/a
2022-05-13 17:14:05,184 INFO  - > waiting for page to be ready... complete
2022-05-13 17:14:05,189 INFO  - > waiting until presenceOfElementLocated: By.xpath: //div[@class='chapter-list js--chapter-list']/div[9]/a
2022-05-13 17:14:05,203 INFO  - > waiting for page to be ready... complete
2022-05-13 17:14:07,029 INFO  - > waiting for element: By.xpath: //div[@id='product-grid']/div
2022-05-13 17:14:07,037 INFO  - > waiting for page to be ready... complete
2022-05-13 17:14:07,051 INFO  - checking cateElement: By.xpath: //div[@class='chapter-list js--chapter-list']/div[9]/a: PASS!!!
2022-05-13 17:14:07,052 INFO  - > click: By.xpath: //a[@class='btn-vm js--chapter-viewmore']
2022-05-13 17:14:07,059 INFO  - > waiting for page to be ready... complete
2022-05-13 17:14:07,062 INFO  - > waiting until presenceOfElementLocated: By.xpath: //a[@class='btn-vm js--chapter-viewmore']
2022-05-13 17:14:07,074 INFO  - > waiting for page to be ready... complete
2022-05-13 17:14:08,125 INFO  - > click: By.xpath: //div[@class='chapter-list js--chapter-list']/div[10]/a
2022-05-13 17:14:08,143 INFO  - > waiting for page to be ready... complete
2022-05-13 17:14:08,148 INFO  - > waiting until presenceOfElementLocated: By.xpath: //div[@class='chapter-list js--chapter-list']/div[10]/a
2022-05-13 17:14:08,165 INFO  - > waiting for page to be ready... complete
2022-05-13 17:14:09,978 INFO  - > waiting for element: By.xpath: //div[@id='product-grid']/div
2022-05-13 17:14:09,985 INFO  - > waiting for page to be ready... complete
2022-05-13 17:14:09,998 INFO  - checking cateElement: By.xpath: //div[@class='chapter-list js--chapter-list']/div[10]/a: PASS!!!
2022-05-13 17:14:09,998 INFO  - > click: By.xpath: //a[@class='btn-vm js--chapter-viewmore']
2022-05-13 17:14:10,004 INFO  - > waiting for page to be ready... complete
2022-05-13 17:14:10,007 INFO  - > waiting until presenceOfElementLocated: By.xpath: //a[@class='btn-vm js--chapter-viewmore']
2022-05-13 17:14:10,018 INFO  - > waiting for page to be ready... complete
2022-05-13 17:14:11,069 INFO  - > click: By.xpath: //div[@class='chapter-list js--chapter-list']/div[11]/a
2022-05-13 17:14:11,081 INFO  - > waiting for page to be ready... complete
2022-05-13 17:14:11,089 INFO  - > waiting until presenceOfElementLocated: By.xpath: //div[@class='chapter-list js--chapter-list']/div[11]/a
2022-05-13 17:14:11,104 INFO  - > waiting for page to be ready... complete
2022-05-13 17:14:13,072 INFO  - > waiting for element: By.xpath: //div[@id='product-grid']/div
2022-05-13 17:14:13,080 INFO  - > waiting for page to be ready... complete
2022-05-13 17:14:13,094 INFO  - checking cateElement: By.xpath: //div[@class='chapter-list js--chapter-list']/div[11]/a: PASS!!!
2022-05-13 17:14:13,094 INFO  - > click: By.xpath: //a[@class='btn-vm js--chapter-viewmore']
2022-05-13 17:14:13,099 INFO  - > waiting for page to be ready... complete
2022-05-13 17:14:13,102 INFO  - > waiting until presenceOfElementLocated: By.xpath: //a[@class='btn-vm js--chapter-viewmore']
2022-05-13 17:14:13,113 INFO  - > waiting for page to be ready... complete
2022-05-13 17:14:14,164 INFO  - > click: By.xpath: //div[@class='chapter-list js--chapter-list']/div[12]/a
2022-05-13 17:14:14,175 INFO  - > waiting for page to be ready... complete
2022-05-13 17:14:14,184 INFO  - > waiting until presenceOfElementLocated: By.xpath: //div[@class='chapter-list js--chapter-list']/div[12]/a
2022-05-13 17:14:14,201 INFO  - > waiting for page to be ready... complete
2022-05-13 17:14:16,501 INFO  - > waiting for element: By.xpath: //div[@id='product-grid']/div
2022-05-13 17:14:16,507 INFO  - > waiting for page to be ready... complete
2022-05-13 17:14:16,521 INFO  - checking cateElement: By.xpath: //div[@class='chapter-list js--chapter-list']/div[12]/a: PASS!!!
2022-05-13 17:14:16,521 INFO  - > click: By.xpath: //a[@class='btn-vm js--chapter-viewmore']
2022-05-13 17:14:16,527 INFO  - > waiting for page to be ready... complete
2022-05-13 17:14:16,529 INFO  - > waiting until presenceOfElementLocated: By.xpath: //a[@class='btn-vm js--chapter-viewmore']
2022-05-13 17:14:16,539 INFO  - > waiting for page to be ready... complete
2022-05-13 17:14:17,582 INFO  - > click: By.xpath: //div[@class='chapter-list js--chapter-list']/div[13]/a
2022-05-13 17:14:17,594 INFO  - > waiting for page to be ready... complete
2022-05-13 17:14:17,602 INFO  - > waiting until presenceOfElementLocated: By.xpath: //div[@class='chapter-list js--chapter-list']/div[13]/a
2022-05-13 17:14:17,621 INFO  - > waiting for page to be ready... complete
2022-05-13 17:14:19,696 INFO  - > waiting for element: By.xpath: //div[@id='product-grid']/div
2022-05-13 17:14:19,702 INFO  - > waiting for page to be ready... complete
2022-05-13 17:14:19,715 INFO  - checking cateElement: By.xpath: //div[@class='chapter-list js--chapter-list']/div[13]/a: PASS!!!
2022-05-13 17:14:19,715 INFO  - > click: By.xpath: //a[@class='btn-vm js--chapter-viewmore']
2022-05-13 17:14:19,721 INFO  - > waiting for page to be ready... complete
2022-05-13 17:14:19,726 INFO  - > waiting until presenceOfElementLocated: By.xpath: //a[@class='btn-vm js--chapter-viewmore']
2022-05-13 17:14:19,736 INFO  - > waiting for page to be ready... complete
2022-05-13 17:14:20,790 INFO  - > click: By.xpath: //div[@class='chapter-list js--chapter-list']/div[14]/a
2022-05-13 17:14:20,797 INFO  - > waiting for page to be ready... complete
2022-05-13 17:14:20,800 INFO  - > waiting until presenceOfElementLocated: By.xpath: //div[@class='chapter-list js--chapter-list']/div[14]/a
2022-05-13 17:14:20,814 INFO  - > waiting for page to be ready... complete
2022-05-13 17:14:22,037 INFO  - > waiting for element: By.xpath: //div[@id='product-grid']/div
2022-05-13 17:14:22,043 INFO  - > waiting for page to be ready... complete
2022-05-13 17:14:22,059 INFO  - checking cateElement: By.xpath: //div[@class='chapter-list js--chapter-list']/div[14]/a: PASS!!!
2022-05-13 17:14:22,059 INFO  - > click: By.xpath: //a[@class='btn-vm js--chapter-viewmore']
2022-05-13 17:14:22,065 INFO  - > waiting for page to be ready... complete
2022-05-13 17:14:22,068 INFO  - > waiting until presenceOfElementLocated: By.xpath: //a[@class='btn-vm js--chapter-viewmore']
2022-05-13 17:14:22,078 INFO  - > waiting for page to be ready... complete
2022-05-13 17:14:23,122 INFO  - > click: By.xpath: //div[@class='chapter-list js--chapter-list']/div[15]/a
2022-05-13 17:14:23,132 INFO  - > waiting for page to be ready... complete
2022-05-13 17:14:23,143 INFO  - > waiting until presenceOfElementLocated: By.xpath: //div[@class='chapter-list js--chapter-list']/div[15]/a
2022-05-13 17:14:23,163 INFO  - > waiting for page to be ready... complete
2022-05-13 17:14:24,999 INFO  - > waiting for element: By.xpath: //div[@id='product-grid']/div
2022-05-13 17:14:25,006 INFO  - > waiting for page to be ready... complete
2022-05-13 17:14:25,020 INFO  - checking cateElement: By.xpath: //div[@class='chapter-list js--chapter-list']/div[15]/a: PASS!!!
2022-05-13 17:14:25,020 INFO  - > click: By.xpath: //a[@class='btn-vm js--chapter-viewmore']
2022-05-13 17:14:25,025 INFO  - > waiting for page to be ready... complete
2022-05-13 17:14:25,027 INFO  - > waiting until presenceOfElementLocated: By.xpath: //a[@class='btn-vm js--chapter-viewmore']
2022-05-13 17:14:25,038 INFO  - > waiting for page to be ready... complete
2022-05-13 17:14:26,090 INFO  - > click: By.xpath: //div[@class='chapter-list js--chapter-list']/div[16]/a
2022-05-13 17:14:26,099 INFO  - > waiting for page to be ready... complete
2022-05-13 17:14:26,108 INFO  - > waiting until presenceOfElementLocated: By.xpath: //div[@class='chapter-list js--chapter-list']/div[16]/a
2022-05-13 17:14:26,129 INFO  - > waiting for page to be ready... complete
2022-05-13 17:14:28,164 INFO  - > waiting for element: By.xpath: //div[@id='product-grid']/div
2022-05-13 17:14:28,170 INFO  - > waiting for page to be ready... complete
2022-05-13 17:14:28,183 INFO  - checking cateElement: By.xpath: //div[@class='chapter-list js--chapter-list']/div[16]/a: PASS!!!
2022-05-13 17:14:28,183 INFO  - > click: By.xpath: //a[@class='btn-vm js--chapter-viewmore']
2022-05-13 17:14:28,190 INFO  - > waiting for page to be ready... complete
2022-05-13 17:14:28,192 INFO  - > waiting until presenceOfElementLocated: By.xpath: //a[@class='btn-vm js--chapter-viewmore']
2022-05-13 17:14:28,204 INFO  - > waiting for page to be ready... complete
2022-05-13 17:14:29,253 INFO  - > click: By.xpath: //div[@class='chapter-list js--chapter-list']/div[17]/a
2022-05-13 17:14:29,268 INFO  - > waiting for page to be ready... complete
2022-05-13 17:14:29,276 INFO  - > waiting until presenceOfElementLocated: By.xpath: //div[@class='chapter-list js--chapter-list']/div[17]/a
2022-05-13 17:14:29,292 INFO  - > waiting for page to be ready... complete
2022-05-13 17:14:31,010 INFO  - > waiting for element: By.xpath: //div[@id='product-grid']/div
2022-05-13 17:14:31,018 INFO  - > waiting for page to be ready... complete
2022-05-13 17:14:31,036 INFO  - checking cateElement: By.xpath: //div[@class='chapter-list js--chapter-list']/div[17]/a: PASS!!!
2022-05-13 17:14:31,036 INFO  - > click: By.xpath: //a[@class='btn-vm js--chapter-viewmore']
2022-05-13 17:14:31,044 INFO  - > waiting for page to be ready... complete
2022-05-13 17:14:31,047 INFO  - > waiting until presenceOfElementLocated: By.xpath: //a[@class='btn-vm js--chapter-viewmore']
2022-05-13 17:14:31,059 INFO  - > waiting for page to be ready... complete
2022-05-13 17:14:32,111 INFO  - > click: By.xpath: //div[@class='chapter-list js--chapter-list']/div[18]/a
2022-05-13 17:14:32,120 INFO  - > waiting for page to be ready... complete
2022-05-13 17:14:32,129 INFO  - > waiting until presenceOfElementLocated: By.xpath: //div[@class='chapter-list js--chapter-list']/div[18]/a
2022-05-13 17:14:32,148 INFO  - > waiting for page to be ready... complete
2022-05-13 17:14:34,530 INFO  - > waiting for element: By.xpath: //div[@id='product-grid']/div
2022-05-13 17:14:34,537 INFO  - > waiting for page to be ready... complete
2022-05-13 17:14:34,549 INFO  - checking cateElement: By.xpath: //div[@class='chapter-list js--chapter-list']/div[18]/a: PASS!!!
2022-05-13 17:14:34,549 INFO  - > click: By.xpath: //a[@class='btn-vm js--chapter-viewmore']
2022-05-13 17:14:34,555 INFO  - > waiting for page to be ready... complete
2022-05-13 17:14:34,557 INFO  - > waiting until presenceOfElementLocated: By.xpath: //a[@class='btn-vm js--chapter-viewmore']
2022-05-13 17:14:34,568 INFO  - > waiting for page to be ready... complete
2022-05-13 17:14:35,624 INFO  - > click: By.xpath: //div[@class='chapter-list js--chapter-list']/div[19]/a
2022-05-13 17:14:35,634 INFO  - > waiting for page to be ready... complete
2022-05-13 17:14:35,642 INFO  - > waiting until presenceOfElementLocated: By.xpath: //div[@class='chapter-list js--chapter-list']/div[19]/a
2022-05-13 17:14:35,663 INFO  - > waiting for page to be ready... complete
2022-05-13 17:14:37,484 INFO  - > waiting for element: By.xpath: //div[@id='product-grid']/div
2022-05-13 17:14:37,489 INFO  - > waiting for page to be ready... complete
2022-05-13 17:14:37,503 INFO  - checking cateElement: By.xpath: //div[@class='chapter-list js--chapter-list']/div[19]/a: PASS!!!
2022-05-13 17:14:37,503 INFO  - > click: By.xpath: //a[@class='btn-vm js--chapter-viewmore']
2022-05-13 17:14:37,508 INFO  - > waiting for page to be ready... complete
2022-05-13 17:14:37,511 INFO  - > waiting until presenceOfElementLocated: By.xpath: //a[@class='btn-vm js--chapter-viewmore']
2022-05-13 17:14:37,521 INFO  - > waiting for page to be ready... complete
2022-05-13 17:14:38,573 INFO  - > click: By.xpath: //div[@class='chapter-list js--chapter-list']/div[20]/a
2022-05-13 17:14:38,583 INFO  - > waiting for page to be ready... complete
2022-05-13 17:14:38,591 INFO  - > waiting until presenceOfElementLocated: By.xpath: //div[@class='chapter-list js--chapter-list']/div[20]/a
2022-05-13 17:14:38,609 INFO  - > waiting for page to be ready... complete
2022-05-13 17:14:40,448 INFO  - > waiting for element: By.xpath: //div[@id='product-grid']/div
2022-05-13 17:14:40,455 INFO  - > waiting for page to be ready... complete
2022-05-13 17:14:40,468 INFO  - checking cateElement: By.xpath: //div[@class='chapter-list js--chapter-list']/div[20]/a: PASS!!!
2022-05-13 17:14:40,468 INFO  - > click: By.xpath: //a[@class='btn-vm js--chapter-viewmore']
2022-05-13 17:14:40,473 INFO  - > waiting for page to be ready... complete
2022-05-13 17:14:40,476 INFO  - > waiting until presenceOfElementLocated: By.xpath: //a[@class='btn-vm js--chapter-viewmore']
2022-05-13 17:14:40,487 INFO  - > waiting for page to be ready... complete
2022-05-13 17:14:41,532 INFO  - > click: By.xpath: //div[@class='chapter-list js--chapter-list']/div[21]/a
2022-05-13 17:14:41,542 INFO  - > waiting for page to be ready... complete
2022-05-13 17:14:41,552 INFO  - > waiting until presenceOfElementLocated: By.xpath: //div[@class='chapter-list js--chapter-list']/div[21]/a
2022-05-13 17:14:41,573 INFO  - > waiting for page to be ready... complete
2022-05-13 17:14:43,410 INFO  - > waiting for element: By.xpath: //div[@id='product-grid']/div
2022-05-13 17:14:43,416 INFO  - > waiting for page to be ready... complete
2022-05-13 17:14:43,429 INFO  - checking cateElement: By.xpath: //div[@class='chapter-list js--chapter-list']/div[21]/a: PASS!!!
2022-05-13 17:14:43,429 INFO  - > click: By.xpath: //a[@class='btn-vm js--chapter-viewmore']
2022-05-13 17:14:43,435 INFO  - > waiting for page to be ready... complete
2022-05-13 17:14:43,437 INFO  - > waiting until presenceOfElementLocated: By.xpath: //a[@class='btn-vm js--chapter-viewmore']
2022-05-13 17:14:43,448 INFO  - > waiting for page to be ready... complete
2022-05-13 17:14:44,501 INFO  - > click: By.xpath: //div[@class='chapter-list js--chapter-list']/div[22]/a
2022-05-13 17:14:44,510 INFO  - > waiting for page to be ready... complete
2022-05-13 17:14:44,518 INFO  - > waiting until presenceOfElementLocated: By.xpath: //div[@class='chapter-list js--chapter-list']/div[22]/a
2022-05-13 17:14:44,537 INFO  - > waiting for page to be ready... complete
2022-05-13 17:14:46,454 INFO  - > waiting for element: By.xpath: //div[@id='product-grid']/div
2022-05-13 17:14:46,461 INFO  - > waiting for page to be ready... complete
2022-05-13 17:14:46,475 INFO  - checking cateElement: By.xpath: //div[@class='chapter-list js--chapter-list']/div[22]/a: PASS!!!
2022-05-13 17:14:46,475 INFO  - > click: By.xpath: //a[@class='btn-vm js--chapter-viewmore']
2022-05-13 17:14:46,480 INFO  - > waiting for page to be ready... complete
2022-05-13 17:14:46,482 INFO  - > waiting until presenceOfElementLocated: By.xpath: //a[@class='btn-vm js--chapter-viewmore']
2022-05-13 17:14:46,492 INFO  - > waiting for page to be ready... complete
2022-05-13 17:14:47,543 INFO  - > click: By.xpath: //div[@class='chapter-list js--chapter-list']/div[23]/a
2022-05-13 17:14:47,556 INFO  - > waiting for page to be ready... complete
2022-05-13 17:14:47,564 INFO  - > waiting until presenceOfElementLocated: By.xpath: //div[@class='chapter-list js--chapter-list']/div[23]/a
2022-05-13 17:14:47,579 INFO  - > waiting for page to be ready... complete
2022-05-13 17:14:49,636 INFO  - > waiting for element: By.xpath: //div[@id='product-grid']/div
2022-05-13 17:14:49,644 INFO  - > waiting for page to be ready... complete
2022-05-13 17:14:49,657 INFO  - checking cateElement: By.xpath: //div[@class='chapter-list js--chapter-list']/div[23]/a: PASS!!!
2022-05-13 17:14:49,659 INFO  - checkPageAlive Done!!!!!!
